<?xml version="1.0" encoding="utf-8"?>
<!-- Generator: Adobe Illustrator 16.0.0, SVG Export Plug-In . SVG Version: 6.00 Build 0)  -->
<!DOCTYPE svg PUBLIC "-//W3C//DTD SVG 1.1//EN" "http://www.w3.org/Graphics/SVG/1.1/DTD/svg11.dtd">
<svg version="1.1" id="Layer_1" xmlns="http://www.w3.org/2000/svg" xmlns:xlink="http://www.w3.org/1999/xlink" x="0px" y="0px"
	 width="30px" height="30px" viewBox="0 0 30 30" enable-background="new 0 0 30 30" xml:space="preserve">
<g>
	<g>
		<polyline fill="#A2A2A2" stroke="#9797FF" stroke-width="3" stroke-linecap="round" stroke-linejoin="round" points="4.529,8.175 
			14.408,2.472 4.44,8.331 14.563,2.486 4.174,8.792 15.024,2.528 3.52,10.494 16.891,2.774 3.042,12.362 18.742,3.298 
			2.862,14.043 20.241,4.009 2.871,15.352 20.945,4.916 2.883,15.529 20.996,5.072 3.2,17.563 21.938,6.745 3.235,17.732 
			22.032,6.88 3.766,18.749 23.045,7.618 3.889,18.955 23.261,7.77 4.129,19.475 24.014,7.994 4.759,21.281 25.563,9.27 
			5.146,21.859 25.904,9.874 6.807,22.824 26.518,11.445 8.348,23.516 26.533,13.016 8.724,23.762 26.568,13.459 9.117,24.236 
			26.657,14.11 9.879,25.475 27.13,15.516 9.94,25.626 27.177,15.674 10.089,25.997 27.124,16.162 11.316,26.648 26.963,17.614 
			12.579,27.094 26.663,18.962 14.35,27.377 24.643,21.434 15.8,27.545 23.4,23.158 17.573,27.391 23.061,24.223 18.213,27.329 
			23.005,24.563 		"/>
	</g>
	<path fill="none" stroke="#000000" stroke-miterlimit="10" d="M27.545,11.295c-0.379-1.282-0.943-2.484-1.672-3.57
		c-2.487-0.212-3.904-1.993-4.25-3.994C19.68,2.585,17.42,1.917,15,1.917c-2.338,0-4.527,0.621-6.427,1.695
		C8.156,5.5,6.767,7.137,4.402,7.349C2.845,9.502,1.917,12.14,1.917,15c0,1.193,0.165,2.346,0.465,3.443
		c0.687,0.801,1.077,1.83,1.177,2.891c0.353,0.633,0.755,1.234,1.203,1.798c2.546,0.058,4.06,1.693,4.535,3.629
		c1.726,0.839,3.656,1.322,5.703,1.322c3.393,0,6.475-1.304,8.797-3.422c0.073-1.976,1.152-3.905,3.242-4.554
		c0.648-1.527,1.018-3.203,1.037-4.961C27.441,13.998,27.268,12.59,27.545,11.295z"/>
</g>
</svg>
