<?xml version="1.0" encoding="utf-8"?>
<!-- Generator: Adobe Illustrator 16.0.0, SVG Export Plug-In . SVG Version: 6.00 Build 0)  -->
<!DOCTYPE svg PUBLIC "-//W3C//DTD SVG 1.1//EN" "http://www.w3.org/Graphics/SVG/1.1/DTD/svg11.dtd">
<svg version="1.1" id="Layer_1" xmlns="http://www.w3.org/2000/svg" xmlns:xlink="http://www.w3.org/1999/xlink" x="0px" y="0px"
	 width="229.667px" height="203.333px" viewBox="0 0 229.667 203.333" enable-background="new 0 0 229.667 203.333"
	 xml:space="preserve">
<g opacity="0.8">
	<g>
		<path fill="none" stroke="#000000" stroke-width="5" stroke-linecap="round" stroke-linejoin="round" d="M225.799,3.303
			l1.127,0.651c0,0-31.853-0.231-31.986,0c-0.509,0.881,31.666,18.189,31.626,18.259c0,0-63.836-19.196-64.377-18.26
			c-0.681,1.18,64.77,36.488,64.377,37.168c-0.158,0.274-91.169-37.167-91.169-37.167l91.169,52.636
			c0,0-117.476-54.446-118.521-52.636C108.038,3.966,227.536,70.7,226.565,72.382C224.251,76.391,76.35,3.018,75.809,3.955
			c-0.15,0.26,152.068,84.767,150.756,87.039C224.184,95.119,48.258,1.648,46.927,3.954c0,0,181.155,101.088,179.639,103.714
			C225.512,109.495,22.041,1.876,20.841,3.955c0,0,206.835,116.85,205.724,118.774L4.625,10.571
			c-0.401,0.694,221.94,128.137,221.94,128.137L4.626,28.604c0,0,223.458,125.507,221.939,128.137
			C225.598,158.417,4.626,47.718,4.626,47.718c-1.641,2.842,224.45,123.787,221.939,128.137c0,0-220.925-111.574-221.94-109.816
			c0,0,222.004,128.023,221.939,128.136c0,0-219.393-116.359-221.938-111.95c-2.868,4.967,210.071,114.821,207.272,119.669
			C208.62,207.571,6.165,94.629,4.625,97.295c0,0,182.754,101.857,181.171,104.599c0,0-178.389-94.07-181.171-89.251l154.587,89.251
			c-2.515,4.356-153.568-75.676-154.587-73.911c-1.499,2.596,128.953,72.291,128.017,73.911
			c-1.577,2.732-126.972-57.143-128.017-55.333c0,0,97.159,53.048,95.839,55.333c-0.007,0.013-95.839-38.88-95.839-38.88
			c-0.919,1.593,67.824,38.044,67.341,38.88c-0.412,0.713-67.265-21.366-67.341-21.234c0,0,36.939,20.957,36.779,21.234
			c-0.178,0.309-36.513-6.176-36.779-5.715c0,0,10.074,5.451,9.916,5.726"/>
		<g>
			<path fill="none" stroke="#000000" stroke-width="5" stroke-linecap="round" stroke-linejoin="round" d="M225.115,6.489
				c0,0,2.961,1.615,2.92,1.686c-0.16,0.277-2.899,17.738-2.915,17.766c-0.022,0.039,2.916,1.684,2.916,1.684
				s-2.867,17.474-2.912,17.552c-0.019,0.031,2.955,1.606,2.911,1.681c-0.114,0.198-2.759,14.443-2.908,14.701
				c-0.026,0.046,2.929,1.646,2.909,1.679c0,0-2.801,17.134-2.905,17.315c-0.008,0.013,2.914,1.661,2.905,1.677
				c0,0-2.869,14.627-2.902,14.685c-0.004,0.007,2.943,1.606,2.902,1.676c-0.07,0.123-2.863,15.671-2.898,15.734
				c-0.018,0.029,2.898,1.674,2.898,1.674l-2.895,14.456c-0.028,0.05,2.922,1.624,2.895,1.671
				c-0.055,0.095-2.892,15.301-2.892,15.301s2.928,1.607,2.893,1.67c-0.164,0.283-2.756,13.763-2.889,13.993
				c0,0,2.896,1.653,2.888,1.668c-0.233,0.403-2.885,17.23-2.885,17.23l2.885,1.665c-0.221,0.383-2.712,16.165-2.881,16.458
				c-0.022,0.038,2.924,1.591,2.882,1.664c-0.369,0.639-33.315-1.684-33.521-1.329c-0.077,0.133,5.07,2.897,5.057,2.92
				c0,0-36.364-3.321-36.6-2.912c0,0,5.061,2.884,5.045,2.912c0,0-31.127-3.656-31.56-2.906c-0.044,0.076,5.035,2.907,5.035,2.907
				s-35.177-3.027-35.25-2.9l5.024,2.9c-0.247,0.428-32.661-2.894-32.661-2.894c-0.058,0.101,5.016,2.889,5.013,2.895l-36.194-2.888
				c-0.078,0.135,5.063,2.782,5.002,2.888l-34.206-3.195c0,0,5.539,3.188,5.534,3.195"/>
			<path fill="none" stroke="#000000" stroke-width="5" stroke-linecap="round" stroke-linejoin="round" d="M225.908,1.676
				l2.78,1.605c0,0-33.23-1.041-33.37-0.798c-0.08,0.139,4.996,2.87,4.99,2.881c0,0-37.435-3.411-37.74-2.881
				c-0.053,0.092,5.021,2.829,4.99,2.881c-0.052,0.089-31.782-2.881-31.782-2.881l4.99,2.881c0,0-32.081-3.334-32.342-2.881
				c0,0,5.03,2.81,4.989,2.881c-0.522,0.904-37.102-3.092-37.224-2.88c-0.005,0.009,5.032,2.805,4.989,2.88
				c-0.406,0.702-33.644-3.272-33.871-2.88c0,0,5.03,2.807,4.988,2.88c-0.143,0.247-30.911-3.162-31.074-2.88
				c0,0,5.015,2.833,4.988,2.88L3.112,8.007C3.107,8.016,6.037,9.695,6.037,9.695l-2.92,16.347c0,0,2.946,1.655,2.926,1.689
				C5.973,27.852,3.12,45.159,3.12,45.159c-0.022,0.038,2.962,1.633,2.929,1.691c0,0-2.855,16.512-2.924,16.632
				c0,0,2.931,1.69,2.93,1.691c0,0-2.774,14.235-2.926,14.497c-0.041,0.071,2.971,1.624,2.931,1.692
				c-0.193,0.334-2.837,13.222-2.928,13.379c0,0,2.958,1.649,2.933,1.693c0,0-2.737,13.323-2.929,13.657l2.934,1.693
				c-0.205,0.354-2.848,13.505-2.931,13.648c-0.034,0.06,2.957,1.658,2.936,1.695c-0.194,0.336-2.803,16.663-2.931,16.886
				c0,0,2.978,1.625,2.937,1.695c-0.001,0.002-2.933,14.76-2.933,14.76c-0.04,0.069,2.959,1.66,2.938,1.696
				c-0.095,0.164-2.917,15.921-2.935,15.951c0,0,2.953,1.676,2.94,1.697c-0.068,0.118-2.836,13.649-2.937,13.824
				c0,0,2.989,1.617,2.942,1.698"/>
		</g>
	</g>
</g>
</svg>
