<?xml version="1.0" encoding="utf-8"?>
<!-- Generator: Adobe Illustrator 16.0.0, SVG Export Plug-In . SVG Version: 6.00 Build 0)  -->
<!DOCTYPE svg PUBLIC "-//W3C//DTD SVG 1.1//EN" "http://www.w3.org/Graphics/SVG/1.1/DTD/svg11.dtd">
<svg version="1.1" id="Layer_1" xmlns="http://www.w3.org/2000/svg" xmlns:xlink="http://www.w3.org/1999/xlink" x="0px" y="0px"
	 width="200px" height="200px" viewBox="0 0 200 200" enable-background="new 0 0 200 200" xml:space="preserve">
<path fill="none" stroke="#000000" stroke-miterlimit="10" d="M19.243,6.233c46.11-1.613,92.244-0.139,138.361,0.24
	C168.736,6.565,179.868,6.593,191,6.5"/>
<path fill="none" stroke="#000000" stroke-miterlimit="10" d="M4.5,145.398C3,161,5,177,4.5,193"/>
<path fill="none" stroke="#000000" stroke-miterlimit="10" d="M4.556,125.735c-0.005,2.723-0.023,5.444-0.056,8.167"/>
<path fill="none" stroke="#000000" stroke-miterlimit="10" d="M4.014,84.236c0.19,9.278,0.381,18.555,0.478,27.834"/>
<path fill="none" stroke="#000000" stroke-miterlimit="10" d="M4.5,7C3.466,24.372,3.366,41.783,3.573,59.179"/>
<path fill="none" stroke="#000000" stroke-miterlimit="10" d="M186.28,193.5c1.573,0,3.146,0,4.72,0"/>
<path fill="none" stroke="#000000" stroke-miterlimit="10" d="M4,193.5c47-2.5,93,0.5,140.476,0"/>
<path fill="none" stroke="#000000" stroke-miterlimit="10" d="M189.637,165.654c-0.681-43.711,1.271-87.411,0.863-131.122"/>
<path fill="none" stroke="#000000" stroke-miterlimit="10" d="M190.5,194c-0.065-1.383-0.127-2.765-0.185-4.147"/>
<path fill="none" stroke="#000000" stroke-miterlimit="10" d="M4.635,6.836C7.408,4.785,15.433,6.16,18.824,6.16"/>
<path fill="none" stroke="#000000" stroke-miterlimit="10" d="M190.784,35.214c-0.23-2.479,0.57-4.836,0.684-7.331
	c0.14-3.063,1.255-5.133,1.343-7.873c0.069-2.158-0.429-5.134-0.675-7.432c-0.268-2.499-1.662-4.442-1.352-7.095"/>
<path fill="none" stroke="#000000" stroke-miterlimit="10" d="M18.487,5.822c0.298,0.241,0.621,0.355,1.013,0.338"/>
<path fill="none" stroke="#000000" stroke-miterlimit="10" d="M3.622,55.822c-0.076,9.193,4.212,20.056,0.338,28.716"/>
<path fill="none" stroke="#000000" stroke-miterlimit="10" d="M4.635,110.214c-0.893,1.645-0.673,5.449-0.676,8.108
	c-0.003,2.648,1.352,6.324,0.338,8.446"/>
<path fill="none" stroke="#000000" stroke-miterlimit="10" d="M4.297,133.188c0.397,4.631-0.499,8.545-0.338,13.175"/>
<path fill="none" stroke="#000000" stroke-miterlimit="10" d="M143.148,192.984c8.415-2.756,18.03-4.082,26.064-1.764
	c5.076,1.465,12.062,2.746,17.517,2.102"/>
<path fill="none" stroke="#000000" stroke-miterlimit="10" d="M190.446,189.943c-2.971-2.474-1.648-9.931-1.334-13.157
	c0.416-4.276,1.436-9.431,0.996-13.531"/>
</svg>
