<?xml version="1.0" encoding="utf-8"?>
<!-- Generator: Adobe Illustrator 16.0.0, SVG Export Plug-In . SVG Version: 6.00 Build 0)  -->
<!DOCTYPE svg PUBLIC "-//W3C//DTD SVG 1.1//EN" "http://www.w3.org/Graphics/SVG/1.1/DTD/svg11.dtd">
<svg version="1.1" id="Layer_1" xmlns="http://www.w3.org/2000/svg" xmlns:xlink="http://www.w3.org/1999/xlink" x="0px" y="0px"
	 width="200px" height="200px" viewBox="0 0 200 200" enable-background="new 0 0 200 200" xml:space="preserve">
<path fill="none" stroke="#000000" stroke-miterlimit="10" d="M19.243,6.233c46.11-1.613,92.243-0.139,138.36,0.24
	C168.736,6.565,179.868,6.593,191,6.5"/>
<path fill="none" stroke="#000000" stroke-miterlimit="10" d="M186.279,193.5c1.574,0,3.146,0,4.721,0"/>
<path fill="none" stroke="#000000" stroke-miterlimit="10" d="M4,193.5c47-2.5,93,0.5,140.477,0"/>
<path fill="none" stroke="#000000" stroke-miterlimit="10" d="M4.635,6.836C7.408,4.785,15.433,6.16,18.824,6.16"/>
<path fill="none" stroke="#000000" stroke-miterlimit="10" d="M18.487,5.822c0.298,0.241,0.621,0.354,1.013,0.338"/>
<path fill="none" stroke="#000000" stroke-miterlimit="10" d="M143.148,192.984c7.011-2.297,14.657-3.661,22.026-2.616
	c7.118,1.01,13.666,3.686,21.021,3.011"/>
</svg>
