\relax 
\providecommand\hyper@newdestlabel[2]{}
\@writefile{toc}{\contentsline {chapter}{\numberline {4}Specification Elements}{17}{chapter.4}}
\@writefile{lof}{\addvspace {10\p@ }}
\@writefile{lot}{\addvspace {10\p@ }}
\@writefile{toc}{\contentsline {section}{\numberline {4.1}Vision}{17}{section.4.1}}
\@writefile{lof}{\contentsline {figure}{\numberline {4.1}{\ignorespaces Vision of LMS\relax }}{18}{figure.caption.18}}
\newlabel{fig:Vision}{{4.1}{18}{Vision of LMS\relax }{figure.caption.18}{}}
\@writefile{toc}{\contentsline {section}{\numberline {4.2}Assumption}{18}{section.4.2}}
\@writefile{lof}{\contentsline {figure}{\numberline {4.2}{\ignorespaces Assumption of LMS\relax }}{18}{figure.caption.19}}
\newlabel{fig:Assumption}{{4.2}{18}{Assumption of LMS\relax }{figure.caption.19}{}}
\@writefile{toc}{\contentsline {section}{\numberline {4.3}Goal}{18}{section.4.3}}
\newlabel{fig:Goal}{{4.3a}{19}{A single Goal\relax }{figure.caption.20}{}}
\newlabel{sub@fig:Goal}{{a}{19}{A single Goal\relax }{figure.caption.20}{}}
\newlabel{fig:GoalTree}{{4.3b}{19}{Goals arranged as goal tree\relax }{figure.caption.20}{}}
\newlabel{sub@fig:GoalTree}{{b}{19}{Goals arranged as goal tree\relax }{figure.caption.20}{}}
\@writefile{lof}{\contentsline {figure}{\numberline {4.3}{\ignorespaces Goals of LMS\relax }}{19}{figure.caption.20}}
\newlabel{fig:GoalAndGoalTree}{{4.3}{19}{Goals of LMS\relax }{figure.caption.20}{}}
\@writefile{toc}{\contentsline {section}{\numberline {4.4}Personas and Storyboard}{19}{section.4.4}}
\newlabel{fig:Persona}{{4.4a}{20}{An example of Persona\relax }{figure.caption.21}{}}
\newlabel{sub@fig:Persona}{{a}{20}{An example of Persona\relax }{figure.caption.21}{}}
\newlabel{fig:Storyboard}{{4.4b}{20}{Storyboard tab\relax }{figure.caption.21}{}}
\newlabel{sub@fig:Storyboard}{{b}{20}{Storyboard tab\relax }{figure.caption.21}{}}
\@writefile{lof}{\contentsline {figure}{\numberline {4.4}{\ignorespaces Persona and Storyboard in RED\relax }}{20}{figure.caption.21}}
\newlabel{fig:PersonaAndStoryboard}{{4.4}{20}{Persona and Storyboard in RED\relax }{figure.caption.21}{}}
\@writefile{lof}{\contentsline {figure}{\numberline {4.5}{\ignorespaces An example of stakeholder\relax }}{20}{figure.caption.22}}
\newlabel{fig:Stakeholder}{{4.5}{20}{An example of stakeholder\relax }{figure.caption.22}{}}
\@writefile{toc}{\contentsline {section}{\numberline {4.5}Stakeholder}{20}{section.4.5}}
\@writefile{toc}{\contentsline {section}{\numberline {4.6}Requirements and Acceptance Test}{21}{section.4.6}}
\newlabel{fig:Requirement}{{4.6a}{21}{An example of Requirement\relax }{figure.caption.23}{}}
\newlabel{sub@fig:Requirement}{{a}{21}{An example of Requirement\relax }{figure.caption.23}{}}
\newlabel{fig:AcceptanceTest}{{4.6b}{21}{An example of Acceptance Test\relax }{figure.caption.23}{}}
\newlabel{sub@fig:AcceptanceTest}{{b}{21}{An example of Acceptance Test\relax }{figure.caption.23}{}}
\@writefile{lof}{\contentsline {figure}{\numberline {4.6}{\ignorespaces Requirement and Acceptance Test\relax }}{21}{figure.caption.23}}
\newlabel{fig:RequirementAndAcceptanceTest}{{4.6}{21}{Requirement and Acceptance Test\relax }{figure.caption.23}{}}
\@writefile{toc}{\contentsline {section}{\numberline {4.7}Model fragments}{22}{section.4.7}}
\@writefile{lof}{\contentsline {figure}{\numberline {4.7}{\ignorespaces Model Fragment example\relax }}{22}{figure.caption.24}}
\newlabel{fig:ModelFragment}{{4.7}{22}{Model Fragment example\relax }{figure.caption.24}{}}
\@writefile{toc}{\contentsline {section}{\numberline {4.8}Test Case}{23}{section.4.8}}
\@writefile{toc}{\contentsline {section}{\numberline {4.9}Scenario}{23}{section.4.9}}
\@setckpt{Chapter4_SpecificationElement/Chapter4_SpecificationElement}{
\setcounter{page}{24}
\setcounter{equation}{0}
\setcounter{enumi}{4}
\setcounter{enumii}{0}
\setcounter{enumiii}{0}
\setcounter{enumiv}{0}
\setcounter{footnote}{0}
\setcounter{mpfootnote}{0}
\setcounter{part}{0}
\setcounter{chapter}{4}
\setcounter{section}{9}
\setcounter{subsection}{0}
\setcounter{subsubsection}{0}
\setcounter{paragraph}{0}
\setcounter{subparagraph}{0}
\setcounter{figure}{7}
\setcounter{table}{0}
\setcounter{ContinuedFloat}{0}
\setcounter{Item}{15}
\setcounter{Hfootnote}{0}
\setcounter{bookmark@seq@number}{40}
\setcounter{vrcnt}{0}
\setcounter{parentequation}{0}
\setcounter{subfigure}{0}
\setcounter{subtable}{0}
\setcounter{lstnumber}{1}
\setcounter{lemma}{0}
\setcounter{example}{0}
\setcounter{section@level}{1}
\setcounter{lstlisting}{0}
}
