\relax 
\providecommand\hyper@newdestlabel[2]{}
\@writefile{toc}{\contentsline {chapter}{\numberline {5}Exporting and Importing other format}{25}{chapter.5}}
\@writefile{lof}{\addvspace {10\p@ }}
\@writefile{lot}{\addvspace {10\p@ }}
\@writefile{toc}{\contentsline {section}{\numberline {5.1}Exporting report}{25}{section.5.1}}
\@writefile{lof}{\contentsline {figure}{\numberline {5.1}{\ignorespaces Export to report dialog\relax }}{26}{figure.caption.25}}
\newlabel{fig:ExportToReport}{{5.1}{26}{Export to report dialog\relax }{figure.caption.25}{}}
\@writefile{toc}{\contentsline {section}{\numberline {5.2}Exporting comments}{26}{section.5.2}}
\@writefile{toc}{\contentsline {section}{\numberline {5.3}Exporting to MPL (Prolog file)}{26}{section.5.3}}
\newlabel{fig:FolderBasedReport}{{5.2a}{27}{Folder-based Report output\relax }{figure.caption.26}{}}
\newlabel{sub@fig:FolderBasedReport}{{a}{27}{Folder-based Report output\relax }{figure.caption.26}{}}
\newlabel{fig:SimpleReport}{{5.2b}{27}{Simple Report output\relax }{figure.caption.26}{}}
\newlabel{sub@fig:SimpleReport}{{b}{27}{Simple Report output\relax }{figure.caption.26}{}}
\@writefile{lof}{\contentsline {figure}{\numberline {5.2}{\ignorespaces Difference between folder-based and simple report\relax }}{27}{figure.caption.26}}
\newlabel{fig:ReportOutput}{{5.2}{27}{Difference between folder-based and simple report\relax }{figure.caption.26}{}}
\@writefile{lof}{\contentsline {figure}{\numberline {5.3}{\ignorespaces Export to MPL (Prolog format)\relax }}{27}{figure.caption.27}}
\newlabel{fig:MPL}{{5.3}{27}{Export to MPL (Prolog format)\relax }{figure.caption.27}{}}
\@writefile{toc}{\contentsline {section}{\numberline {5.4}Importing an existing MPL (Prolog file)}{28}{section.5.4}}
\@setckpt{Chapter5_Exporting/Chapter5_Exporting}{
\setcounter{page}{29}
\setcounter{equation}{0}
\setcounter{enumi}{4}
\setcounter{enumii}{0}
\setcounter{enumiii}{0}
\setcounter{enumiv}{0}
\setcounter{footnote}{0}
\setcounter{mpfootnote}{0}
\setcounter{part}{0}
\setcounter{chapter}{5}
\setcounter{section}{4}
\setcounter{subsection}{0}
\setcounter{subsubsection}{0}
\setcounter{paragraph}{0}
\setcounter{subparagraph}{0}
\setcounter{figure}{3}
\setcounter{table}{0}
\setcounter{ContinuedFloat}{0}
\setcounter{Item}{15}
\setcounter{Hfootnote}{0}
\setcounter{bookmark@seq@number}{45}
\setcounter{vrcnt}{0}
\setcounter{parentequation}{0}
\setcounter{subfigure}{0}
\setcounter{subtable}{0}
\setcounter{lstnumber}{1}
\setcounter{lemma}{0}
\setcounter{example}{0}
\setcounter{section@level}{1}
\setcounter{lstlisting}{0}
}
