\relax 
\providecommand\hyper@newdestlabel[2]{}
\@writefile{toc}{\contentsline {chapter}{\numberline {1}Navigating around the views and editors}{1}{chapter.1}}
\@writefile{lof}{\addvspace {10\p@ }}
\@writefile{lot}{\addvspace {10\p@ }}
\@writefile{toc}{\contentsline {section}{\numberline {1.1}Overview of the UI}{1}{section.1.1}}
\@writefile{lof}{\contentsline {figure}{\numberline {1.1}{\ignorespaces RED Main Window\relax }}{2}{figure.caption.4}}
\providecommand*\caption@xref[2]{\@setref\relax\@undefined{#1}}
\newlabel{fig:MainWindow}{{1.1}{2}{RED Main Window\relax }{figure.caption.4}{}}
\@writefile{toc}{\contentsline {section}{\numberline {1.2}Element Explorer View}{2}{section.1.2}}
\@writefile{toc}{\contentsline {section}{\numberline {1.3}File Explorer View}{2}{section.1.3}}
\@writefile{toc}{\contentsline {section}{\numberline {1.4}Associations View}{2}{section.1.4}}
\newlabel{fig:ElementExplorer}{{1.2a}{3}{Element Explorer\relax }{figure.caption.5}{}}
\newlabel{sub@fig:ElementExplorer}{{a}{3}{Element Explorer\relax }{figure.caption.5}{}}
\newlabel{fig:FileExplorer}{{1.2b}{3}{File Explorer\relax }{figure.caption.5}{}}
\newlabel{sub@fig:FileExplorer}{{b}{3}{File Explorer\relax }{figure.caption.5}{}}
\@writefile{lof}{\contentsline {figure}{\numberline {1.2}{\ignorespaces Element and File Explorer\relax }}{3}{figure.caption.5}}
\newlabel{fig:ElemenAndFileExplorer}{{1.2}{3}{Element and File Explorer\relax }{figure.caption.5}{}}
\newlabel{fig:Associations}{{1.3a}{3}{Associations\relax }{figure.caption.6}{}}
\newlabel{sub@fig:Associations}{{a}{3}{Associations\relax }{figure.caption.6}{}}
\newlabel{fig:Comments}{{1.3b}{3}{Comments\relax }{figure.caption.6}{}}
\newlabel{sub@fig:Comments}{{b}{3}{Comments\relax }{figure.caption.6}{}}
\@writefile{lof}{\contentsline {figure}{\numberline {1.3}{\ignorespaces Associations and Comments\relax }}{3}{figure.caption.6}}
\newlabel{fig:AssociationsAndComments}{{1.3}{3}{Associations and Comments\relax }{figure.caption.6}{}}
\@writefile{toc}{\contentsline {section}{\numberline {1.5}Comments View}{4}{section.1.5}}
\@writefile{toc}{\contentsline {section}{\numberline {1.6}Glossary View}{4}{section.1.6}}
\newlabel{fig:Glossary}{{1.4a}{4}{Glossary\relax }{figure.caption.7}{}}
\newlabel{sub@fig:Glossary}{{a}{4}{Glossary\relax }{figure.caption.7}{}}
\newlabel{fig:Search}{{1.4b}{4}{Search\relax }{figure.caption.7}{}}
\newlabel{sub@fig:Search}{{b}{4}{Search\relax }{figure.caption.7}{}}
\@writefile{lof}{\contentsline {figure}{\numberline {1.4}{\ignorespaces Glossary and Search\relax }}{4}{figure.caption.7}}
\newlabel{fig:GlossaryAndSearch}{{1.4}{4}{Glossary and Search\relax }{figure.caption.7}{}}
\@writefile{toc}{\contentsline {section}{\numberline {1.7}Search View}{4}{section.1.7}}
\@writefile{toc}{\contentsline {section}{\numberline {1.8}Element Editor}{4}{section.1.8}}
\@writefile{toc}{\contentsline {subsection}{\numberline {1.8.1}Generic Text Editor}{5}{subsection.1.8.1}}
\@writefile{lof}{\contentsline {figure}{\numberline {1.5}{\ignorespaces Element Editor for Vision\relax }}{5}{figure.caption.8}}
\newlabel{fig:ElementEditor}{{1.5}{5}{Element Editor for Vision\relax }{figure.caption.8}{}}
\@writefile{toc}{\contentsline {section}{\numberline {1.9}Management and Tracing Tab}{5}{section.1.9}}
\@writefile{lof}{\contentsline {figure}{\numberline {1.6}{\ignorespaces Management and Tracing tab\relax }}{6}{figure.caption.9}}
\newlabel{fig:ManagementAndTracing}{{1.6}{6}{Management and Tracing tab\relax }{figure.caption.9}{}}
\@setckpt{Chapter1_NavigatingAround/Chapter1_NavigatingAround}{
\setcounter{page}{7}
\setcounter{equation}{0}
\setcounter{enumi}{0}
\setcounter{enumii}{0}
\setcounter{enumiii}{0}
\setcounter{enumiv}{0}
\setcounter{footnote}{0}
\setcounter{mpfootnote}{0}
\setcounter{part}{0}
\setcounter{chapter}{1}
\setcounter{section}{9}
\setcounter{subsection}{0}
\setcounter{subsubsection}{0}
\setcounter{paragraph}{0}
\setcounter{subparagraph}{0}
\setcounter{figure}{6}
\setcounter{table}{0}
\setcounter{ContinuedFloat}{0}
\setcounter{Item}{0}
\setcounter{Hfootnote}{0}
\setcounter{bookmark@seq@number}{13}
\setcounter{vrcnt}{0}
\setcounter{parentequation}{0}
\setcounter{subfigure}{0}
\setcounter{subtable}{0}
\setcounter{lstnumber}{1}
\setcounter{lemma}{0}
\setcounter{example}{0}
\setcounter{section@level}{1}
\setcounter{lstlisting}{0}
}
