<?xml version="1.0" encoding="utf-8"?>
<!-- Generator: Adobe Illustrator 16.0.0, SVG Export Plug-In . SVG Version: 6.00 Build 0)  -->
<!DOCTYPE svg PUBLIC "-//W3C//DTD SVG 1.1//EN" "http://www.w3.org/Graphics/SVG/1.1/DTD/svg11.dtd">
<svg version="1.1" id="Layer_1" xmlns="http://www.w3.org/2000/svg" xmlns:xlink="http://www.w3.org/1999/xlink" x="0px" y="0px"
	 width="100px" height="50px" viewBox="0 0 100 50" enable-background="new 0 0 100 50" xml:space="preserve">
<path fill="#C8C8C8" stroke="#000000" stroke-miterlimit="10" d="M98.5,16.507v-2.696C98.5,6.845,93.095,1.5,86.428,1.5h-6.9
	c-0.397,0.433-0.949,0.745-1.672,0.808c-3.92,0.339-7.825,0.801-11.765,0.535c-1.02-0.069-1.713-0.625-2.085-1.342h-5.103
	c-2.696,0.351-5.396,0.681-8.106,0.915C49.831,2.498,49.163,2.1,48.78,1.5h-9.096c-2.69,0.307-5.379,0.632-8.068,0.962
	c-0.358,0.238-0.808,0.381-1.354,0.38c-5.579-0.017-11.137-0.248-16.685-0.855c-0.432-0.047-0.8-0.187-1.115-0.381
	C6.459,2.349,1.5,7.385,1.5,13.812v3.596c0.493,1.577,1.048,3.126,0.888,4.86c-0.069,0.745-0.383,1.417-0.888,1.879v1.25
	c0.015,0.056,0.041,0.105,0.05,0.163c0.269,1.644,0.696,3.268,0.731,4.943c0.015,0.702-0.296,1.34-0.781,1.798v3.585
	C1.5,42.853,7.325,48.5,13.992,48.5h6.156c2.313-0.182,4.581-0.376,6.829-0.313c0.39-0.324,0.909-0.526,1.573-0.506
	c5.317,0.168,10.742-1.92,15.956-1.474c4.65,0.397,9.282,1.521,13.908,2.204c0.128,0.019,0.236,0.056,0.35,0.088h6.783
	c2.605-0.178,5.211-0.384,7.816-0.604c0.787-0.066,1.377,0.186,1.777,0.604h0.143c0.423-0.35,0.941-0.563,1.503-0.497
	c0.313,0.036,1.473,0.215,0.535,0.106c0.447,0.052,0.867,0.188,1.235,0.391h7.871c6.667,0,12.072-5.647,12.072-12.614v-2.035
	c-1.093-0.417-2.005-1.482-1.772-2.943c0.38-2.392,1.144-4.732,1.47-7.131c-0.473-0.537-0.721-1.277-0.507-2.173
	C98.096,19.912,98.348,18.217,98.5,16.507z"/>
</svg>
