\relax 
\providecommand\hyper@newdestlabel[2]{}
\@writefile{toc}{\contentsline {chapter}{\numberline {2}Organizing Workspace}{7}{chapter.2}}
\@writefile{lof}{\addvspace {10\p@ }}
\@writefile{lot}{\addvspace {10\p@ }}
\@writefile{toc}{\contentsline {section}{\numberline {2.1}Project}{7}{section.2.1}}
\@writefile{lof}{\contentsline {figure}{\numberline {2.1}{\ignorespaces Recommended Layout for a RED project\relax }}{8}{figure.caption.10}}
\newlabel{fig:ProjectOrganization}{{2.1}{8}{Recommended Layout for a RED project\relax }{figure.caption.10}{}}
\@writefile{lof}{\contentsline {figure}{\numberline {2.2}{\ignorespaces Details in a Project Editor\relax }}{8}{figure.caption.11}}
\newlabel{fig:ProjectEditor}{{2.2}{8}{Details in a Project Editor\relax }{figure.caption.11}{}}
\@writefile{toc}{\contentsline {section}{\numberline {2.2}Folder}{9}{section.2.2}}
\@writefile{toc}{\contentsline {section}{\numberline {2.3}Document}{9}{section.2.3}}
\@writefile{toc}{\contentsline {section}{\numberline {2.4}Searching for Elements}{9}{section.2.4}}
\@writefile{lof}{\contentsline {figure}{\numberline {2.3}{\ignorespaces Search Dialog\relax }}{9}{figure.caption.12}}
\newlabel{fig:SearchDialog}{{2.3}{9}{Search Dialog\relax }{figure.caption.12}{}}
\@writefile{toc}{\contentsline {section}{\numberline {2.5}Sorting and Filtering Elements}{10}{section.2.5}}
\@writefile{lof}{\contentsline {figure}{\numberline {2.4}{\ignorespaces Sorting and Filtering\relax }}{10}{figure.caption.13}}
\newlabel{fig:SortAndFilter}{{2.4}{10}{Sorting and Filtering\relax }{figure.caption.13}{}}
\@writefile{toc}{\contentsline {section}{\numberline {2.6}Moving Elements}{10}{section.2.6}}
\@writefile{toc}{\contentsline {section}{\numberline {2.7}Renaming Elements}{10}{section.2.7}}
\@writefile{toc}{\contentsline {section}{\numberline {2.8}Locking Elements}{11}{section.2.8}}
\@writefile{lof}{\contentsline {figure}{\numberline {2.5}{\ignorespaces Reviewing and Locking under Management and Tracing tab\relax }}{11}{figure.caption.14}}
\newlabel{fig:ReviewAndLock}{{2.5}{11}{Reviewing and Locking under Management and Tracing tab\relax }{figure.caption.14}{}}
\@writefile{toc}{\contentsline {section}{\numberline {2.9}Documenting changes}{11}{section.2.9}}
\@writefile{toc}{\contentsline {section}{\numberline {2.10}Creating references}{12}{section.2.10}}
\@writefile{toc}{\contentsline {section}{\numberline {2.11}Adding comments}{12}{section.2.11}}
\@setckpt{Chapter2_OrganizingWorkspace/Chapter2_OrganizingWorkspace}{
\setcounter{page}{13}
\setcounter{equation}{0}
\setcounter{enumi}{4}
\setcounter{enumii}{0}
\setcounter{enumiii}{0}
\setcounter{enumiv}{0}
\setcounter{footnote}{0}
\setcounter{mpfootnote}{0}
\setcounter{part}{0}
\setcounter{chapter}{2}
\setcounter{section}{11}
\setcounter{subsection}{0}
\setcounter{subsubsection}{0}
\setcounter{paragraph}{0}
\setcounter{subparagraph}{0}
\setcounter{figure}{5}
\setcounter{table}{0}
\setcounter{ContinuedFloat}{0}
\setcounter{Item}{8}
\setcounter{Hfootnote}{0}
\setcounter{bookmark@seq@number}{25}
\setcounter{vrcnt}{0}
\setcounter{parentequation}{0}
\setcounter{subfigure}{0}
\setcounter{subtable}{0}
\setcounter{lstnumber}{1}
\setcounter{lemma}{0}
\setcounter{example}{0}
\setcounter{section@level}{1}
\setcounter{lstlisting}{0}
}
