\relax 
\providecommand\hyper@newdestlabel[2]{}
\@writefile{toc}{\contentsline {chapter}{\numberline {3}Managing Glossary And Reference}{13}{chapter.3}}
\@writefile{lof}{\addvspace {10\p@ }}
\@writefile{lot}{\addvspace {10\p@ }}
\@writefile{toc}{\contentsline {section}{\numberline {3.1}Creating Glossary}{13}{section.3.1}}
\@writefile{toc}{\contentsline {section}{\numberline {3.2}Creating Glossary Entry}{14}{section.3.2}}
\@writefile{lof}{\contentsline {figure}{\numberline {3.1}{\ignorespaces Glossary Entry\relax }}{14}{figure.caption.15}}
\newlabel{fig:GlossaryEntry}{{3.1}{14}{Glossary Entry\relax }{figure.caption.15}{}}
\@writefile{toc}{\contentsline {section}{\numberline {3.3}Creating Glossary Reference}{14}{section.3.3}}
\newlabel{glossaryRef}{{3.3}{14}{Creating Glossary Reference}{section.3.3}{}}
\@writefile{lof}{\contentsline {figure}{\numberline {3.2}{\ignorespaces Glossary Reference\relax }}{15}{figure.caption.16}}
\newlabel{fig:GlossaryReference}{{3.2}{15}{Glossary Reference\relax }{figure.caption.16}{}}
\@writefile{lof}{\contentsline {figure}{\numberline {3.3}{\ignorespaces Glossary View showing the terms LMS after the text is highlighted\relax }}{15}{figure.caption.17}}
\newlabel{fig:GlossaryViewShowEntry}{{3.3}{15}{Glossary View showing the terms LMS after the text is highlighted\relax }{figure.caption.17}{}}
\@writefile{toc}{\contentsline {section}{\numberline {3.4}Creating Element Reference}{15}{section.3.4}}
\newlabel{elementRef}{{3.4}{15}{Creating Element Reference}{section.3.4}{}}
\@setckpt{Chapter3_GlossaryAndReference/Chapter3_GlossaryAndReference}{
\setcounter{page}{16}
\setcounter{equation}{0}
\setcounter{enumi}{4}
\setcounter{enumii}{0}
\setcounter{enumiii}{0}
\setcounter{enumiv}{0}
\setcounter{footnote}{0}
\setcounter{mpfootnote}{0}
\setcounter{part}{0}
\setcounter{chapter}{3}
\setcounter{section}{4}
\setcounter{subsection}{0}
\setcounter{subsubsection}{0}
\setcounter{paragraph}{0}
\setcounter{subparagraph}{0}
\setcounter{figure}{3}
\setcounter{table}{0}
\setcounter{ContinuedFloat}{0}
\setcounter{Item}{8}
\setcounter{Hfootnote}{0}
\setcounter{bookmark@seq@number}{30}
\setcounter{vrcnt}{0}
\setcounter{parentequation}{0}
\setcounter{subfigure}{0}
\setcounter{subtable}{0}
\setcounter{lstnumber}{1}
\setcounter{lemma}{0}
\setcounter{example}{0}
\setcounter{section@level}{1}
\setcounter{lstlisting}{0}
}
